<?xml version="1.0" encoding="UTF-8" standalone="no"?>
<svg
   xmlns:dc="http://purl.org/dc/elements/1.1/"
   xmlns:cc="http://creativecommons.org/ns#"
   xmlns:rdf="http://www.w3.org/1999/02/22-rdf-syntax-ns#"
   xmlns:svg="http://www.w3.org/2000/svg"
   xmlns="http://www.w3.org/2000/svg"
   xmlns:sodipodi="http://sodipodi.sourceforge.net/DTD/sodipodi-0.dtd"
   xmlns:inkscape="http://www.inkscape.org/namespaces/inkscape"
   data-name="Your Icon"
   viewBox="0 0 16 16"
   x="0px"
   y="0px"
   version="1.1"
   id="svg18"
   sodipodi:docname="icon-instagram.svg"
   width="16"
   height="16"
   inkscape:version="0.92.2 5c3e80d, 2017-08-06">
  <metadata
     id="metadata22">
    <rdf:RDF>
      <cc:Work
         rdf:about="">
        <dc:format>image/svg+xml</dc:format>
        <dc:type
           rdf:resource="http://purl.org/dc/dcmitype/StillImage" />
        <dc:title>инстаграмм</dc:title>
      </cc:Work>
    </rdf:RDF>
  </metadata>
  <sodipodi:namedview
     pagecolor="#ffffff"
     bordercolor="#666666"
     borderopacity="1"
     objecttolerance="10"
     gridtolerance="10"
     guidetolerance="10"
     inkscape:pageopacity="0"
     inkscape:pageshadow="2"
     inkscape:window-width="936"
     inkscape:window-height="480"
     id="namedview20"
     showgrid="false"
     fit-margin-top="0"
     fit-margin-left="0"
     fit-margin-right="0"
     fit-margin-bottom="0"
     inkscape:zoom="1.888"
     inkscape:cx="44.5"
     inkscape:cy="31.999998"
     inkscape:window-x="0"
     inkscape:window-y="27"
     inkscape:window-maximized="0"
     inkscape:current-layer="svg18" />
  <defs
     id="defs4">
    <style
       id="style2">.cls-1,.cls-2{fill:none;stroke:#000;stroke-linecap:round;stroke-miterlimit:10;}.cls-1{stroke-width:7px;}.cls-2{stroke-width:6px;}</style>
  </defs>
  <title
     id="title6">инстаграмм</title>
  <circle
     class="cls-1"
     cx="8"
     cy="8.0000019"
     r="3.4049439"
     id="circle8"
     style="fill:none;stroke:#666666;stroke-width:1.25842702px;stroke-linecap:round;stroke-miterlimit:10" />
  <circle
     class="cls-2"
     cx="12.404494"
     cy="3.8885443"
     r="0.52314609"
     id="circle10"
     style="fill:none;stroke:#666666;stroke-width:1.07865167px;stroke-linecap:round;stroke-miterlimit:10" />
  <rect
     class="cls-1"
     x="0.62921351"
     y="0.62921351"
     width="14.741573"
     height="14.741573"
     rx="3.4157302"
     ry="3.4157302"
     id="rect12"
     style="fill:none;stroke:#666666;stroke-width:1.25842702px;stroke-linecap:round;stroke-miterlimit:10" />
</svg>
